{
    "name": "datsched",
    "authors": [
        "Millian Poquet"
],
    "dependencies": {
        "zmqd": "~>1.1.0",
        "zeromq": "~>4.1.4",
        "libgmp": "~>1.0.0",
        "dintervalset": "~>0.1.0"
    },
    "description": "A Batsim Scheduler in D",
    "copyright": "Copyright © 2017, Millian Poquet",
    "license": "GPL",
    "targetType":"executable",
    "sourcePaths":["src"],
    "importPaths":["src", "src/algo"]
}
